Módulo 1: Introducción a R, tipos de datos y estructuras básicas
…
unique(penguins$island)

[1] Torgersen Biscoe    Dream    
Levels: Biscoe Dream Torgersen

Entender e interactuar con los datos

# Extraer solo ciertas filas y columnas para crear subsets
penguins[,-c(3:5)]

# A tibble: 344 × 5
   species island    body_mass_g sex     year
   <fct>   <fct>           <int> <fct>  <int>
 1 Adelie  Torgersen        3750 male    2007
 2 Adelie  Torgersen        3800 female  2007
 3 Adelie  Torgersen        3250 female  2007
 4 Adelie  Torgersen          NA <NA>    2007
 5 Adelie  Torgersen        3450 female  2007
 6 Adelie  Torgersen        3650 male    2007
 7 Adelie  Torgersen        3625 female  2007
 8 Adelie  Torgersen        4675 male    2007
 9 Adelie  Torgersen        3475 <NA>    2007
10 Adelie  Torgersen        4250 <NA>    2007
# ℹ 334 more rows

Ejercicio

Crea un data frame llamado penguins_2009 que sea el subset de penguins, que solo tenga los datos del año 2009, que no tenga las medidas de tamaño y sin los valores NA. Usa la función na.omit( )

Code

penguins_2009 <- na.omit(penguins[penguins$year == 2009, -c(3:5)])
penguins_2009

# A tibble: 117 × 5
   species island body_mass_g sex     year
   <fct>   <fct>        <int> <fct>  <int>
 1 Adelie  Biscoe        3725 female  2009
 2 Adelie  Biscoe        4725 male    2009
 3 Adelie  Biscoe        3075 female  2009
 4 Adelie  Biscoe        4250 male    2009
 5 Adelie  Biscoe        2925 female  2009
 6 Adelie  Biscoe        3550 male    2009
 7 Adelie  Biscoe        3750 female  2009
 8 Adelie  Biscoe        3900 male    2009
 9 Adelie  Biscoe        3175 female  2009
10 Adelie  Biscoe        4775 male    2009
# ℹ 107 more rows
…
